{
  "messages": [
    {
      "id": "80e03254-1b8f-11e8-9629-c7eca82aa7bd",
      "userId": "5328dba1-1b8f-11e8-9629-c7eca82aa7bd",
      "avatar": "https://www.aceshowbiz.com/images/photo/tom_pelphrey.jpg",
      "user": "Ben",
      "text": "What the ** is a red flag anyway?",
      "createdAt": "2020-07-16T19:50:07.708Z",
      "editedAt": ""
    },
    {
      "id": "80e03253-1b8f-11e8-9629-c7eca82aa7bd",
      "userId": "4b003c20-1b8f-11e8-9629-c7eca82aa7bd",
      "avatar": "https://resizing.flixster.com/PCEX63VBu7wVvdt9Eq-FrTI6d_4=/300x300/v1.cjs0MzYxNjtqOzE4NDk1OzEyMDA7MzQ5OzMxMQ",
      "user": "Helen",
      "text": "You said you could handle things",
      "createdAt": "2020-07-16T19:53:02.483Z",
      "editedAt": ""
    },
    {
      "id": "80e03252-1b8f-11e8-9629-c7eca82aa7bd",
      "userId": "9e243930-83c9-11e9-8e0c-8f1a686f4ce4",
      "avatar": "https://resizing.flixster.com/kr0IphfLGZqni5JOWDS2P1-zod4=/280x250/v1.cjs0OTQ2NztqOzE4NDk1OzEyMDA7MjgwOzI1MA",
      "user": "Ruth",
      "text": "I did what he taught me.",
      "createdAt": "2020-07-16T19:53:17.272Z",
      "editedAt": "2020-07-16T19:53:50.272Z",
      "isLiked": false
    },
    {
      "id": "80e03251-1b8f-11e8-9629-c7eca82aa7bd",
      "userId": "9e243930-83c9-11e9-8e0c-8f1a686f4ce4",
      "avatar": "https://resizing.flixster.com/kr0IphfLGZqni5JOWDS2P1-zod4=/280x250/v1.cjs0OTQ2NztqOzE4NDk1OzEyMDA7MjgwOzI1MA",
      "user": "Ruth",
      "text": "it`s not my fucking fault!",
      "createdAt": "2020-07-16T19:53:49.171Z",
      "editedAt": "",
      "isLiked": true
    },
    {
      "id": "80e03249-1b8f-11e8-9629-c7eca82aa7bd",
      "userId": "4b003c20-1b8f-11e8-9629-c7eca82aa7bd",
      "avatar": "https://resizing.flixster.com/PCEX63VBu7wVvdt9Eq-FrTI6d_4=/300x300/v1.cjs0MzYxNjtqOzE4NDk1OzEyMDA7MzQ5OzMxMQ",
      "user": "Helen",
      "text": "Her best is gonna get us all killed.",
      "createdAt": "2020-07-16T19:57:07.965Z",
      "editedAt": "2020-07-16T19:57:15.965Z",
      "isLiked": false
    },
    {
      "id": "80e03248-1b8f-11e8-9629-c7eca82aa7bd",
      "userId": "9e243930-83c9-11e9-8e0c-8f1a686f4ce4",
      "avatar": "https://resizing.flixster.com/kr0IphfLGZqni5JOWDS2P1-zod4=/280x250/v1.cjs0OTQ2NztqOzE4NDk1OzEyMDA7MjgwOzI1MA",
      "user": "Ruth",
      "text": "I don`t know how!",
      "createdAt": "2020-07-16T19:58:06.686Z",
      "editedAt": "",
      "isLiked": true
    },
    {
      "id": "80e03247-1b8f-11e8-9629-c7eca82aa7bd",
      "userId": "9e243930-83c9-11e9-8e0c-8f1a686f4ce4",
      "avatar": "https://resizing.flixster.com/kr0IphfLGZqni5JOWDS2P1-zod4=/280x250/v1.cjs0OTQ2NztqOzE4NDk1OzEyMDA7MjgwOzI1MA",
      "user": "Ruth",
      "text": "it means that the accounts frozen that cause the feds might think that there’s a crime being committed.",
      "createdAt": "2020-07-16T19:52:04.375Z",
      "editedAt": "",
      "isLiked": true
    },
    {
      "id": "80e03246-1b8f-11e8-9629-c7eca82aa7bd",
      "userId": "9e243930-83c9-11e9-8e0c-8f1a686f4ce4",
      "avatar": "https://resizing.flixster.com/kr0IphfLGZqni5JOWDS2P1-zod4=/280x250/v1.cjs0OTQ2NztqOzE4NDk1OzEyMDA7MjgwOzI1MA",
      "user": "Ruth",
      "text": "Like by me",
      "createdAt": "2020-07-16T19:52:15.334Z",
      "editedAt": "",
      "isLiked": false
    },
    {
      "id": "8ef9d6e3-cc9b-481d-8a27-30b9ba324886",
      "userId": "533b5230-1b8f-11e8-9629-c7eca82aa7bd",
      "user": "Wendy",
      "avatar": "https://resizing.flixster.com/EVAkglctn7E9B0hVKJrueplabuQ=/220x196/v1.cjs0NjYwNjtqOzE4NDk1OzEyMDA7MjIwOzE5Ng",
      "createdAt": "2021-02-19T14:27:56+02:00",
      "text": "My new message",
      "editedAt": "2021-02-19T21:58:54+02:00"
    }
  ]
}